[gd_scene load_steps=3 format=3 uid="uid://iym6si07davh"]

[ext_resource type="Script" path="res://character/character.gd" id="1_i1q16"]
[ext_resource type="Script" path="res://character/FSM.gd" id="2_kolqn"]

[node name="character" type="CharacterBody2D"]
script = ExtResource("1_i1q16")

[node name="FiniteStateMachine" type="Node" parent="."]
script = ExtResource("2_kolqn")

[node name="AnimatedSprite2D" type="AnimatedSprite2D" parent="."]

[node name="CollisionShape2D" type="CollisionShape2D" parent="."]

[node name="AnimationPlayer" type="AnimationPlayer" parent="."]
